Success= array(6) {
  'Timestamp' =>
  string(20) "2012-11-12T09:01:57Z"
  'Ack' =>
  string(7) "Success"
  'CorrelationID' =>
  string(13) "d879f3d25d410"
  'Version' =>
  string(4) "61.0"
  'Build' =>
  string(7) "4181146"
  'CreateRecurringPaymentsProfileResponseDetails' =>
  array(3) {
    'ProfileID' =>
    string(14) "I-6UHGE3N4MSPJ"
    'ProfileStatus' =>
    string(13) "ActiveProfile"
    'TransactionID' =>
    string(0) ""
  }
}